sampleid,row,column,value
ARISESAM000001,1,A,0.29
ARISESAM000009,2,A,0.62
ARISESAM000017,3,A,0.97
ARISESAM000025,4,A,0.38
NA,5,A,-1
NA,6,A,-1
NA,7,A,-1
NA,8,A,-1
NA,9,A,-1
NA,10,A,-1
NA,11,A,-1
NA,12,A,-1
ARISESAM000002,1,B,0.79
ARISESAM000010,2,B,0.23
ARISESAM000018,3,B,0.99
ARISESAM000026,4,B,0.62
NA,5,B,-1
NA,6,B,-1
NA,7,B,-1
NA,8,B,-1
NA,9,B,-1
NA,10,B,-1
NA,11,B,-1
NA,12,B,-1
ARISESAM000003,1,C,0.94
ARISESAM000011,2,C,0.51
ARISESAM000019,3,C,0.29
ARISESAM000027,4,C,0.33
NA,5,C,-1
NA,6,C,-1
NA,7,C,-1
NA,8,C,-1
NA,9,C,-1
NA,10,C,-1
NA,11,C,-1
NA,12,C,-1
ARISESAM000004,1,D,0.72
ARISESAM000012,2,D,0.84
ARISESAM000020,3,D,0.59
ARISESAM000028,4,D,0.34
NA,5,D,-1
NA,6,D,-1
NA,7,D,-1
NA,8,D,-1
NA,9,D,-1
NA,10,D,-1
NA,11,D,-1
NA,12,D,-1
ARISESAM000005,1,E,0.39
ARISESAM000013,2,E,0.22
ARISESAM000021,3,E,0.78
ARISESAM000029,4,E,0.70
NA,5,E,-1
NA,6,E,-1
NA,7,E,-1
NA,8,E,-1
NA,9,E,-1
NA,10,E,-1
NA,11,E,-1
NA,12,E,-1
ARISESAM000006,1,F,0.30
ARISESAM000014,2,F,0.65
ARISESAM000022,3,F,0.51
ARISESAM000030,4,F,0.57
NA,5,F,-1
NA,6,F,-1
NA,7,F,-1
NA,8,F,-1
NA,9,F,-1
NA,10,F,-1
NA,11,F,-1
NA,12,F,-1
ARISESAM000007,1,G,0.43
ARISESAM000015,2,G,0.81
ARISESAM000023,3,G,0.28
ARISESAM000031,4,G,0.99
NA,5,G,-1
NA,6,G,-1
NA,7,G,-1
NA,8,G,-1
NA,9,G,-1
NA,10,G,-1
NA,11,G,-1
NA,12,G,-1
ARISESAM000008,1,H,0.18
ARISESAM000016,2,H,0.70
ARISESAM000024,3,H,0.82
NA,4,H,-1
NA,5,H,-1
NA,6,H,-1
NA,7,H,-1
ARISESAM000064,8,H,0.41
NA,9,H,-1
NA,10,H,-1
NA,11,H,-1
NA,12,H,-1
